.....................
----------------------------------------------------------------------
Ran 21 tests in 4.416s

OK
Name             Stmts   Miss Branch BrPart  Cover   Missing
------------------------------------------------------------
Collatz.py          33      0     10      0   100%
TestCollatz.py      91      0      0      0   100%
------------------------------------------------------------
TOTAL              124      0     10      0   100%
