...................
----------------------------------------------------------------------
Ran 19 tests in 0.159s

OK
Name             Stmts   Miss Branch BrPart  Cover   Missing
------------------------------------------------------------
Collatz.py          81      0     36      0   100%
TestCollatz.py      83      0      0      0   100%
------------------------------------------------------------
TOTAL              164      0     36      0   100%